lab_2022_04_26
…
## Output limits:  -0.1015625 0.3984375

## Baseline: -0.1 sBaseline: 0 s

## Creating 256 epochs.

# str(epoched_example)

epoched_example <- electrode_locations(epoched_example)

## Electrodes not found: EXG1 EXG2 EXG3 EXG4 EXG5 EXG6 EXG7 EXG8

channels(epoched_example)

## # A tibble: 72 x 9
##    electrode radius theta   phi cart_x cart_y cart_z     x     y
##    <chr>      <dbl> <dbl> <dbl>  <dbl>  <dbl>  <dbl> <dbl> <dbl>
##  1 Fp1            1   -94   -71  -29.4   83.9  -6.99 -30.6  88.9
##  2 AF7            1   -97   -51  -54.8   68.6 -10.6  -61.0  75.4
##  3 AF3            1   -76   -66  -33.7   76.8  21.2  -30.9  69.4
##  4 F1             1   -46   -64  -27.5   56.9  60.3  -20.2  41.3
##  5 F3             1   -60   -47  -50.2   53.1  42.2  -40.9  43.9
##  6 F5             1   -78   -37  -64.5   48.0  16.9  -62.3  46.9
##  7 F7             1   -98   -31  -70.3   42.5 -11.4  -84    50.5
##  8 FT7            1   -98   -10  -80.8   14.1 -11.1  -96.5  17.0
##  9 FC5            1   -73   -14  -77.2   18.6  24.5  -70.8  17.7
## 10 FC3            1   -49   -21  -60.2   22.7  55.5  -45.8  17.6
## # ... with 62 more rows
…
# devtools::document("C:\\Users\\livio\\OneDrive\\Documenti\\github\\eegusta")
# devtools::install("C:\\Users\\livio\\OneDrive\\Documenti\\github\\eegusta")
# https://github.com/livioivil/eegusta

# devtools::install_github("livioivil/eegusta")
library(eegusta)

eegUtils (eeg_data and eeg_epochs) vs eeguana (eeg_lst)

ex=eegUtils2eeguana(
  epoched_example
)
epoched_example$epochs

## # A tibble: 256 x 5
##    epoch participant_id recording         event_type epoch_labels
##    <dbl> <lgl>          <chr>                  <dbl> <chr>       
##  1     1 NA             Matt-task-spatcue        122 valid_right 
##  2     2 NA             Matt-task-spatcue        120 valid_left  
##  3     3 NA             Matt-task-spatcue        122 valid_right 
##  4     4 NA             Matt-task-spatcue        122 valid_right 
##  5     5 NA             Matt-task-spatcue        120 valid_left  
##  6     6 NA             Matt-task-spatcue        122 valid_right 
##  7     7 NA             Matt-task-spatcue        120 valid_left  
##  8     8 NA             Matt-task-spatcue        120 valid_left  
##  9     9 NA             Matt-task-spatcue        122 valid_right 
## 10    10 NA             Matt-task-spatcue        122 valid_right 
## # ... with 246 more rows
…
